<?xml version="1.0" encoding="UTF-8"?>
<svg enable-background="new 0 0 27.9 24" version="1.1" viewBox="0 0 27.9 24" xml:space="preserve" xmlns="http://www.w3.org/2000/svg">
<style type="text/css">
	.st0{fill:#666666;}
</style>
<polygon class="st0" points="27.9 12 15.8 0 14.4 1.4 24 11 0 11 0 13 24 13 14.4 22.6 15.8 24"/>
</svg>
